{
  "collectionName": "components_shared_item_values",
  "info": {
    "displayName": "itemValue",
    "icon": "house"
  },
  "options": {},
  "attributes": {
    "text": {
      "type": "string",
      "required": true
    },
    "value": {
      "type": "string",
      "required": true
    }
  }
}
