{
  "collectionName": "components_shared_time_lines",
  "info": {
    "displayName": "timeLine",
    "icon": "house"
  },
  "options": {},
  "attributes": {
    "year": {
      "type": "string",
      "required": true
    },
    "image": {
      "allowedTypes": [
        "images"
      ],
      "type": "media",
      "multiple": false
    },
    "title": {
      "type": "string",
      "required": true
    },
    "content": {
      "type": "text"
    },
    "items": {
      "type": "component",
      "repeatable": true,
      "component": "shared.title"
    }
  }
}
