{
  "collectionName": "components_shared_titles",
  "info": {
    "displayName": "title",
    "icon": "house"
  },
  "options": {},
  "attributes": {
    "title": {
      "type": "string",
      "required": true
    },
    "titleColor": {
      "type": "string",
      "default": "#1E1E1E"
    },
    "content": {
      "type": "text"
    }
  }
}
