{
  "collectionName": "components_seudam_bite_accommodations",
  "info": {
    "displayName": "accommodation",
    "icon": "write"
  },
  "options": {},
  "attributes": {
    "header": {
      "type": "component",
      "repeatable": false,
      "component": "shared.header",
      "required": true
    },
    "content": {
      "type": "text",
      "required": false
    },
    "subTitle": {
      "type": "string",
      "required": true
    },
    "videos": {
      "allowedTypes": [
        "videos"
      ],
      "type": "media",
      "multiple": true
    }
  }
}
