{
  "collectionName": "components_support_contactuses",
  "info": {
    "displayName": "contactUs",
    "icon": "write"
  },
  "options": {},
  "attributes": {
    "breadcrumbs": {
      "type": "component",
      "component": "shared.link",
      "repeatable": true,
      "required": true
    },
    "header": {
      "type": "component",
      "component": "shared.header",
      "repeatable": false,
      "required": true
    },
    "content": {
      "type": "text"
    },
    "liveSupport": {
      "type": "component",
      "component": "seudam.social-group",
      "repeatable": false,
      "required": true
    },
    "socialContact": {
      "type": "component",
      "component": "seudam.social-group",
      "repeatable": false,
      "required": true
    },
    "location": {
      "type": "component",
      "component": "seudam.item-group",
      "repeatable": false,
      "required": true
    },
    "telephone": {
      "type": "component",
      "component": "seudam.item-group",
      "repeatable": false,
      "required": true
    },
    "contactForm": {
      "type": "component",
      "component": "global.form-contact",
      "repeatable": false,
      "required": false
    }
  }
}
