{
  "collectionName": "components_support_lost_items",
  "info": {
    "displayName": "lostItems",
    "icon": "write",
    "description": ""
  },
  "options": {},
  "attributes": {
    "breadcrumbs": {
      "type": "component",
      "repeatable": true,
      "component": "shared.link",
      "required": true
    },
    "header": {
      "type": "component",
      "repeatable": false,
      "component": "shared.header",
      "required": true
    },
    "content": {
      "type": "customField",
      "options": {
        "output": "HTML",
        "preset": "rich"
      },
      "customField": "plugin::ckeditor.CKEditor"
    }
  }
}
