{
  "collectionName": "components_seudam_go_section_popular_routes",
  "info": {
    "displayName": "sectionPopularRoutes",
    "icon": "write"
  },
  "options": {},
  "attributes": {
    "header": {
      "type": "component",
      "repeatable": false,
      "component": "shared.header",
      "required": true
    },
    "groups": {
      "type": "component",
      "repeatable": true,
      "component": "seudam-go.group-popular-routes",
      "required": true
    }
  }
}
