{
  "collectionName": "components_seudam_go_section_piers",
  "info": {
    "displayName": "sectionPiers",
    "icon": "write"
  },
  "options": {},
  "attributes": {
    "header": {
      "type": "component",
      "repeatable": false,
      "required": true,
      "component": "shared.header"
    },
    "contacts": {
      "type": "component",
      "repeatable": true,
      "component": "shared.contact",
      "required": true
    }
  }
}
