{
  "collectionName": "components_introduce_aboutuses",
  "info": {
    "displayName": "aboutUs",
    "icon": "write"
  },
  "options": {},
  "attributes": {
    "header": {
      "type": "component",
      "repeatable": false,
      "component": "shared.header",
      "required": true
    },
    "content": {
      "type": "text"
    },
    "histories": {
      "type": "component",
      "repeatable": true,
      "component": "shared.time-line",
      "required": true
    },
    "mission": {
      "type": "component",
      "repeatable": false,
      "component": "about-us.mission",
      "required": true
    },
    "culture": {
      "type": "component",
      "repeatable": false,
      "component": "about-us.core-values",
      "required": true
    },
    "core": {
      "type": "component",
      "repeatable": false,
      "component": "about-us.core-values",
      "required": true
    },
    "people": {
      "type": "component",
      "repeatable": false,
      "component": "about-us.key-people",
      "required": true
    }
  }
}
