{
  "collectionName": "components_introduce_partners",
  "info": {
    "displayName": "partner",
    "icon": "write"
  },
  "options": {},
  "attributes": {
    "tabs": {
      "type": "component",
      "repeatable": true,
      "component": "seudam.feature-group",
      "required": true
    },
    "header": {
      "type": "component",
      "repeatable": false,
      "component": "shared.header",
      "required": true
    },
    "steps": {
      "type": "component",
      "repeatable": true,
      "component": "shared.item",
      "required": true
    },
    "subTitle": {
      "type": "string",
      "required": true
    },
    "subContent": {
      "type": "text"
    },
    "form": {
      "type": "component",
      "component": "global.form-contact",
      "repeatable": false,
      "required": false
    }
  }
}
