{
  "kind": "collectionType",
  "collectionName": "blogs",
  "info": {
    "singularName": "blog",
    "pluralName": "blogs",
    "displayName": "Blog",
    "description": ""
  },
  "options": {
    "draftAndPublish": true
  },
  "pluginOptions": {
    "i18n": {
      "localized": true
    }
  },
  "attributes": {
    "title": {
      "type": "string",
      "required": true,
      "pluginOptions": {
        "i18n": {
          "localized": true
        }
      }
    },
    "thumbnail": {
      "type": "media",
      "multiple": false,
      "required": true,
      "allowedTypes": [
        "images"
      ],
      "pluginOptions": {
        "i18n": {
          "localized": true
        }
      }
    },
    "shortContent": {
      "pluginOptions": {
        "i18n": {
          "localized": true
        }
      },
      "type": "customField",
      "options": {
        "output": "HTML",
        "preset": "rich"
      },
      "required": true,
      "customField": "plugin::ckeditor.CKEditor"
    },
    "content": {
      "pluginOptions": {
        "i18n": {
          "localized": true
        }
      },
      "type": "customField",
      "options": {
        "output": "HTML",
        "preset": "rich"
      },
      "customField": "plugin::ckeditor.CKEditor"
    },
    "links": {
      "type": "component",
      "repeatable": true,
      "pluginOptions": {
        "i18n": {
          "localized": true
        }
      },
      "component": "shared.link"
    },
    "hashtags": {
      "type": "relation",
      "relation": "oneToMany",
      "target": "api::blog-hashtag.blog-hashtag"
    }
  }
}
