{
  "collectionName": "components_home_comments",
  "info": {
    "displayName": "comment",
    "icon": "write"
  },
  "options": {},
  "attributes": {
    "social": {
      "type": "enumeration",
      "enum": [
        "tiktok",
        "google",
        "facebook"
      ],
      "required": true
    },
    "commentImage": {
      "allowedTypes": [
        "images"
      ],
      "type": "media",
      "multiple": false,
      "required": true
    }
  }
}
