{
  "collectionName": "components_home_our_galleries",
  "info": {
    "displayName": "ourGallery",
    "icon": "write"
  },
  "options": {},
  "attributes": {
    "header": {
      "type": "component",
      "repeatable": false,
      "required": true,
      "component": "shared.header"
    },
    "images": {
      "allowedTypes": [
        "images"
      ],
      "type": "media",
      "multiple": true
    },
    "button": {
      "type": "component",
      "repeatable": false,
      "component": "shared.link-button",
      "required": true
    }
  }
}
