{
  "collectionName": "components_faqs_faqs",
  "info": {
    "displayName": "faq",
    "icon": "write",
    "description": ""
  },
  "options": {},
  "attributes": {
    "title": {
      "type": "string",
      "required": true
    },
    "items": {
      "type": "component",
      "repeatable": true,
      "component": "shared.html"
    }
  }
}
