{
  "collectionName": "components_about_us_core_values",
  "info": {
    "displayName": "coreValues",
    "icon": "write"
  },
  "options": {},
  "attributes": {
    "title": {
      "type": "string",
      "required": true
    },
    "values": {
      "type": "component",
      "repeatable": true,
      "component": "shared.item-feature",
      "required": true
    }
  }
}
