{
  "collectionName": "components_about_us_key_people",
  "info": {
    "displayName": "keyPeople",
    "icon": "write",
    "description": ""
  },
  "options": {},
  "attributes": {
    "title": {
      "type": "string",
      "required": true
    },
    "content": {
      "type": "text"
    },
    "persons": {
      "type": "component",
      "repeatable": true,
      "component": "shared.item-feature",
      "required": true
    }
  }
}
