{
  "collectionName": "components_about_us_missions",
  "info": {
    "displayName": "mission",
    "icon": "write"
  },
  "options": {},
  "attributes": {
    "title": {
      "type": "string",
      "required": true
    },
    "items": {
      "type": "component",
      "repeatable": true,
      "component": "shared.html",
      "required": true
    }
  }
}
