{
  "kind": "collectionType",
  "collectionName": "promotions",
  "info": {
    "singularName": "promotion",
    "pluralName": "promotions",
    "displayName": "Promotion",
    "description": ""
  },
  "options": {
    "draftAndPublish": true
  },
  "pluginOptions": {
    "i18n": {
      "localized": true
    }
  },
  "attributes": {
    "title": {
      "type": "string",
      "required": true,
      "pluginOptions": {
        "i18n": {
          "localized": true
        }
      }
    },
    "image": {
      "type": "media",
      "multiple": false,
      "required": true,
      "allowedTypes": [
        "images"
      ],
      "pluginOptions": {
        "i18n": {
          "localized": true
        }
      }
    },
    "content": {
      "pluginOptions": {
        "i18n": {
          "localized": true
        }
      },
      "type": "text"
    },
    "startDate": {
      "pluginOptions": {
        "i18n": {
          "localized": true
        }
      },
      "type": "date",
      "required": true
    },
    "endDate": {
      "pluginOptions": {
        "i18n": {
          "localized": true
        }
      },
      "type": "date",
      "required": true
    },
    "status": {
      "pluginOptions": {
        "i18n": {
          "localized": false
        }
      },
      "type": "boolean",
      "default": true,
      "required": true
    },
    "hashTags": {
      "pluginOptions": {
        "i18n": {
          "localized": false
        }
      },
      "type": "customField",
      "options": [
        "#discount",
        "#package",
        "#limited-time"
      ],
      "required": true,
      "customField": "plugin::multi-select.multi-select"
    },
    "button": {
      "type": "component",
      "repeatable": false,
      "pluginOptions": {
        "i18n": {
          "localized": true
        }
      },
      "component": "shared.link-file",
      "required": true
    }
  }
}
