{
  "collectionName": "components_seudam_item_groups",
  "info": {
    "displayName": "itemGroup",
    "icon": "house"
  },
  "options": {},
  "attributes": {
    "title": {
      "type": "string",
      "required": true
    },
    "content": {
      "type": "string"
    },
    "items": {
      "type": "component",
      "repeatable": true,
      "component": "shared.item-record",
      "required": true
    }
  }
}
