{
  "collectionName": "components_seudam_social_groups",
  "info": {
    "displayName": "socialGroup",
    "icon": "house"
  },
  "options": {},
  "attributes": {
    "title": {
      "type": "string",
      "required": true
    },
    "content": {
      "type": "string"
    },
    "socials": {
      "type": "component",
      "repeatable": true,
      "component": "shared.link-icon",
      "required": true
    }
  }
}
